Service Name,Path Prefix,Port,Middleware Name
ap-purchase-order-enricher-service,/ApPurchaseOrderEnricher/,9620,eeevvv-middleware-admin-ingress-appurchaseorderenricher
ar-invoice-enricher-service,/ArInvoiceEnricher/,9550,eeevvv-middleware-admin-ingress-arinvoiceenricher
audit-mgmt-tms-service,/AuditMgmtTms/,9740,eeevvv-middleware-admin-ingress-auditmgmttms
authorization-management-service,/AuthorizationManagement/,8890,eeevvv-middleware-admin-ingress-authorizationmanagement
auto-load-processing-service,/AutoLoadProcessing/,9650,eeevvv-middleware-admin-ingress-autoloadprocessing
b2b-router-tms-service,/B2BRouterTms/,8970,eeevvv-middleware-admin-ingress-b2broutertms
config-mgmt-tms-service,/ConfigMgmtTms/,9730,eeevvv-middleware-admin-ingress-configmgmttms
customer-finance-tms-service,/CustomerFinanceTms/,8910,eeevvv-middleware-admin-ingress-customerfinancetms
data-access-tms-service,/DataAccessTms/,9470,eeevvv-middleware-admin-ingress-dataaccesstms
data-mgmt-tms-service,/DataMgmtTms/,9710,eeevvv-middleware-admin-ingress-datamgmttms
delivery-schedule-mgmt-service,/DeliveryScheduleMgmt/,9760,eeevvv-middleware-admin-ingress-deliveryschedulemgmt
delivery-schedule-service,/DeliveryScheduleService/,9770,eeevvv-middleware-admin-ingress-deliveryscheduleservice
document-rendering-service,/DocumentRendering/,9720,eeevvv-middleware-admin-ingress-documentrendering
ecargo-dispatch-order-service,/EcargoDispatchOrder/,9420,eeevvv-middleware-admin-ingress-ecargodispatchorder
ecargo-gl-journal-adapter-service,/EcargoGlJournalAdapter/,9700,eeevvv-middleware-admin-ingress-ecargogljournaladapter
ecargo-message-router-service,/EcargoMessageRouter/,9410,eeevvv-middleware-admin-ingress-ecargomessagerouter
edge-transport-service,/EdgeTransport/,8870,eeevvv-middleware-admin-ingress-edgetransport
eroad-integration-service,/EroadIntegration/,9670,eeevvv-middleware-admin-ingress-eroadintegration
eroad-integration-service-v2,/EroadIntegrationV2/,9790,eeevvv-middleware-admin-ingress-eroadintegrationv2
eroad-machine-import-service,/EroadMachineImport/,9791,eeevvv-middleware-admin-ingress-eroadmachineimport
eroad-machine-gps-processor,/EroadMachineGps/,9792,eeevvv-middleware-admin-ingress-eroadmachinegps
machine-gps-to-tms-service,/MachineGpsTms/,9793,eeevvv-middleware-admin-ingress-machinegpstms
gl-journal-enricher-service,/GlJournalEnricher/,9580,eeevvv-middleware-admin-ingress-gljournalenricher
jda-accruals-gl-journal-adapter-service,/JDAGLAccruals/,9750,eeevvv-middleware-admin-ingress-jdaglaccruals
jda-ap-gl-journal-adapter-service,/JdaAPGlJournalAdapter/,9640,eeevvv-middleware-admin-ingress-jdaapgljournaladapter
jda-ap-purchase-order-adapter-service,/JdaApPurchaseOrderAdapter/,9610,eeevvv-middleware-admin-ingress-jdaappurchaseorderadapter
jda-ar-invoice-adapter-service,/JdaArInvoiceAdapter/,9540,eeevvv-middleware-admin-ingress-jdaarinvoiceadapter
jda-dispatch-order-service,/JdaDispatchOrder/,9440,eeevvv-middleware-admin-ingress-jdadispatchorder
jda-find-entities-adapter-service,/JdaFindEntities/,8850,eeevvv-middleware-admin-ingress-jdafindentities
jda-gl-journal-adapter-service,/JdaGlJournalAdapter/,9570,eeevvv-middleware-admin-ingress-jdagljournaladapter
jde-advance-shipment-service,/JdeAdvanceShipment/,9480,eeevvv-middleware-admin-ingress-jdeadvanceshipment
jde-confirmed-shipment-service,/JdeConfirmedShipment/,9490,eeevvv-middleware-admin-ingress-jdeconfirmedshipment
load-entities-tms-adapter-service,/LoadEntitiesTmsAdapter/,8930,eeevvv-middleware-admin-ingress-loadentitiestmsadapter
load-events-tms-adapter-service,/LoadEventsTmsAdapter/,8990,eeevvv-middleware-admin-ingress-loadeventstmsadapter
load-processing-tms-service,/LoadProcessingTms/,8950,eeevvv-middleware-admin-ingress-loadprocessingtms
load-report-tms-service,/LoadReportTms/,9010,eeevvv-middleware-admin-ingress-loadreporttms
logging-tms-service,/LoggingTms/,9680,eeevvv-middleware-admin-ingress-loggingtms
master-schedule-service,/MasterSchedule/,9510,eeevvv-middleware-admin-ingress-masterschedule
master-schedule-verification-service,/MasterScheduleVerification/,6910,eeevvv-middleware-admin-ingress-masterscheduleverification
mobility-b2b-tms-service,/MobilityB2BService/,9320,eeevvv-middleware-admin-ingress-mobilityb2bservice
open-load-processing-tms-service,/OpenLoadProcessing/,9460,eeevvv-middleware-admin-ingress-openloadprocessing
power-dispatch-order-service,/PowerDispatchOrder/,9600,eeevvv-middleware-admin-ingress-powerdispatchorder
proof-of-delivery-ingest-tms-service,/ProofOfDeliveryIngestTms/,8730,eeevvv-middleware-admin-ingress-proofofdeliveryingesttms
proof-of-delivery-tms-service,/ProofOfDeliveryTms/,8710,eeevvv-middleware-admin-ingress-proofofdeliverytms
role-management-service,/RoleManagement/,8750,eeevvv-middleware-admin-ingress-rolemanagement
sap-ap-purchase-order-adapter-service,/SapApPurchaseOrderAdapter/,9630,eeevvv-middleware-admin-ingress-sapappurchaseorderadapter
sap-ar-invoice-adapter-service,/SapArInvoiceAdapter/,9560,eeevvv-middleware-admin-ingress-saparinvoiceadapter
sap-dispatch-order-service,/SapDispatchOrder/,9450,eeevvv-middleware-admin-ingress-sapdispatchorder
sap-gl-journal-adapter-service,/SapGlJournalAdapter/,9590,eeevvv-middleware-admin-ingress-sapgljournaladapter
scheduling-tms-service,/SchedulingTms/,9690,eeevvv-middleware-admin-ingress-schedulingtms
shipment-adapter-service,/ShipmentAdapter/,8830,eeevvv-middleware-admin-ingress-shipmentadapter
shipment-service,/Shipment/,9430,eeevvv-middleware-admin-ingress-shipment
shipment-interface-service,/ShipmentInterface/,9369,eeevvv-middleware-admin-ingress-shipmentinterface
shipping-invoice-ingest-service,/ShippingInvoiceIngest/,8790,eeevvv-middleware-admin-ingress-shippinginvoiceingest
shipping-invoice-tms-service,/ShippingInvoiceTms/,8770,eeevvv-middleware-admin-ingress-shippinginvoicetms
tms-load-processing-mobility-service,/TMSloadProcessingMobilityService/,9310,eeevvv-middleware-admin-ingress-tmsloadprocessingmobilityservice
gil-shipment-mobility-service,/GilmoursShipmentMobilityService/,9340,eeevvv-middleware-admin-ingress-gilmoursshipmentmobilityservice
shipment-label-service,/ShipmentLabelService/,9350,eeevvv-middleware-admin-ingress-shipmentlabelservice
pod-staging-service,/PODStagingService/,9360,eeevvv-middleware-admin-ingress-podstagingservice
b2b-sscc-label-service,/B2BSSCCLabelService/,9365,eeevvv-middleware-admin-ingress-b2bsscclabelservice
sap-sscc-label-service,/SAPSSCCLabelService/,9366,eeevvv-middleware-admin-ingress-sapsscclabelservice
exite-interface-service,/ExiteInterfaceService/,9367,eeevvv-middleware-admin-ingress-exiteinterfaceservice
shipment-data-service,/ShipmentDataService/,9368,eeevvv-middleware-admin-ingress-shipmentdataservice
salesforce-data-service,/SalesforceDataService/,9370,eeevvv-middleware-admin-ingress-salesforcedataservice
transport-doc-mgmt-service,/TransportDocumentMgmtService/,9780,eeevvv-middleware-admin-ingress-transportdocumentmgmtservice
user-info-tms-service,/UserInfoTms/,8810,eeevvv-middleware-admin-ingress-userinfotms
gil-shipment-mobility-service,/GilmoursShipmentMobilityService/,9340,eeevvv-middleware-ws-ingress-gilmoursshipmentmobilityservice
sap-dispatch-order-service,/SapDispatchOrder/,9450,eeevvv-middleware-ws-ingress-sapdispatchorder
jde-advance-shipment-service,/JdeAdvanceShipment/,9480,eeevvv-middleware-ws-ingress-jdeadvanceshipment
jde-confirmed-shipment-service,/JdeConfirmedShipment/,9490,eeevvv-middleware-ws-ingress-jdeconfirmedshipment
master-schedule-service,/MasterSchedule/,9510,eeevvv-middleware-ws-ingress-masterschedule
power-dispatch-order-service,/PowerDispatchOrder/,9600,eeevvv-middleware-ws-ingress-powerdispatchorder
load-processing-tms-service,/LoadProcessingTms/,8950,eeevvv-middleware-ws-ingress-loadprocessingtms
gil-shipment-mobility-service,/GilmoursShipmentMobilityService/,9340,eeevvv-middleware-ws-ingress-gilmoursshipmentmobilityservice
sap-sscc-label-service,/SAPSSCCLabelService/,9366,eeevvv-middleware-ws-ingress-sapsscclabelservice
exite-interface-service,/ExiteInterfaceService/,9367,eeevvv-middleware-ws-ingress-exiteinterfaceservice
uipath-proxy-tms-service,/UiPathProxyTms/,9350,eeevvv-middleware-ws-ingress-uipathproxytms
